[
    {
        "arguments": [
            "cc",
            "-c",
            "-g",
            "-std=c99",
            "-pedantic",
            "-Wall",
            "-Wno-deprecated-declarations",
            "-Os",
            "-I/usr/X11R6/include",
            "-I/usr/include/freetype2",
            "-D_DEFAULT_SOURCE",
            "-D_BSD_SOURCE",
            "-D_POSIX_C_SOURCE=2",
            "-DVERSION=\"6.2\"",
            "-DXINERAMA",
            "dwm.c"
        ],
        "directory": "/home/smb/Working/dwmtest",
        "file": "dwm.c"
    },
    {
        "arguments": [
            "/usr/bin/cc",
            "-c",
            "-g",
            "-std=c99",
            "-pedantic",
            "-Wall",
            "-Wno-deprecated-declarations",
            "-Os",
            "-I/usr/X11R6/include",
            "-I/usr/include/freetype2",
            "-D_DEFAULT_SOURCE",
            "-D_BSD_SOURCE",
            "-D_POSIX_C_SOURCE=2",
            "-DVERSION=\"6.2\"",
            "-DXINERAMA",
            "-o",
            "dwm.o",
            "dwm.c"
        ],
        "directory": "/home/smb/Working/dwmtest",
        "file": "dwm.c"
    }
]